                                     ______
_______ _____  _____  ______________ ___  /
__  __ `/_  / / /  / / /_  ___/  __ `/_  / 
_  /_/ /_  /_/ // /_/ /_  /   / /_/ /_  /  
_\__, / _\__, / \__,_/ /_/    \__,_/ /_/   
/____/  /____/                             